// Jest Snapshot v1, https://goo.gl/fbAQLP

exports[`Jest Snapshot testing suite Matches DOM Snapshot 1`] = `
<View
  style={
    Array [
      Object {
        "backgroundColor": "#068e7f",
        "borderRadius": 30,
        "height": 100,
        "width": 100,
      },
    ]
  }
/>
`;
